100
4950
522
540
279
372
717
769
462
951
893
180
574
838
603
264
549
887
19
916
610
880
405
569
14
881
633
523
430
174
47
590
874
170
949
587
505
592
34
434
625
947
251
202
505
289
435
696
946
883
113
373
310
801
652
595
495
188
106
128
203
395
522
916
262
714
374
888
616
448
438
343
865
983
600
697
443
362
92
430
791
858
848
552
434
833
183
748
649
539
39
899
618
658
970
587
837
577
597
539
980
794
160 0 1
368 0 2
759 0 3
524 0 4
118 0 5
633 0 6
834 0 7
63 0 8
974 0 9
385 0 10
139 0 11
371 0 12
664 0 13
22 0 14
542 0 15
560 0 16
756 0 17
262 0 18
668 0 19
622 0 20
399 0 21
122 0 22
164 0 23
153 0 24
79 0 25
109 0 26
120 0 27
693 0 28
234 0 29
814 0 30
275 0 31
552 0 32
330 0 33
404 0 34
577 0 35
944 0 36
795 0 37
153 0 38
744 0 39
234 0 40
216 0 41
115 0 42
670 0 43
965 0 44
659 0 45
455 0 46
667 0 47
471 0 48
476 0 49
694 0 50
904 0 51
806 0 52
508 0 53
29 0 54
408 0 55
137 0 56
201 0 57
240 0 58
790 0 59
216 0 60
324 0 61
855 0 62
727 0 63
473 0 64
418 0 65
371 0 66
753 0 67
605 0 68
513 0 69
810 0 70
244 0 71
82 0 72
228 0 73
585 0 74
65 0 75
634 0 76
279 0 77
2 0 78
456 0 79
116 0 80
110 0 81
559 0 82
406 0 83
905 0 84
804 0 85
725 0 86
462 0 87
466 0 88
264 0 89
460 0 90
455 0 91
976 0 92
493 0 93
214 0 94
871 0 95
141 0 96
561 0 97
446 0 98
183 0 99
545 1 2
806 1 3
491 1 4
719 1 5
343 1 6
384 1 7
93 1 8
626 1 9
585 1 10
558 1 11
616 1 12
102 1 13
112 1 14
700 1 15
462 1 16
613 1 17
721 1 18
848 1 19
954 1 20
983 1 21
828 1 22
628 1 23
114 1 24
884 1 25
559 1 26
483 1 27
84 1 28
20 1 29
971 1 30
935 1 31
829 1 32
153 1 33
558 1 34
491 1 35
565 1 36
864 1 37
121 1 38
565 1 39
727 1 40
892 1 41
9 1 42
718 1 43
728 1 44
571 1 45
443 1 46
788 1 47
734 1 48
429 1 49
500 1 50
88 1 51
635 1 52
706 1 53
976 1 54
924 1 55
498 1 56
76 1 57
228 1 58
391 1 59
833 1 60
101 1 61
749 1 62
684 1 63
279 1 64
417 1 65
114 1 66
111 1 67
504 1 68
919 1 69
887 1 70
386 1 71
526 1 72
252 1 73
12 1 74
32 1 75
875 1 76
449 1 77
390 1 78
888 1 79
261 1 80
687 1 81
708 1 82
787 1 83
561 1 84
144 1 85
564 1 86
753 1 87
699 1 88
423 1 89
231 1 90
201 1 91
700 1 92
50 1 93
554 1 94
456 1 95
45 1 96
118 1 97
671 1 98
724 1 99
187 2 3
973 2 4
643 2 5
201 2 6
627 2 7
868 2 8
681 2 9
891 2 10
0 2 11
792 2 12
367 2 13
246 2 14
419 2 15
378 2 16
792 2 17
635 2 18
699 2 19
887 2 20
474 2 21
219 2 22
133 2 23
13 2 24
496 2 25
784 2 26
333 2 27
347 2 28
834 2 29
634 2 30
398 2 31
865 2 32
132 2 33
808 2 34
134 2 35
352 2 36
756 2 37
864 2 38
422 2 39
755 2 40
88 2 41
881 2 42
456 2 43
270 2 44
856 2 45
150 2 46
377 2 47
190 2 48
111 2 49
902 2 50
890 2 51
73 2 52
792 2 53
930 2 54
634 2 55
95 2 56
935 2 57
598 2 58
254 2 59
321 2 60
869 2 61
339 2 62
171 2 63
425 2 64
616 2 65
732 2 66
506 2 67
467 2 68
427 2 69
968 2 70
22 2 71
394 2 72
985 2 73
96 2 74
235 2 75
101 2 76
400 2 77
322 2 78
95 2 79
739 2 80
11 2 81
213 2 82
613 2 83
150 2 84
600 2 85
229 2 86
663 2 87
844 2 88
676 2 89
449 2 90
924 2 91
75 2 92
236 2 93
195 2 94
147 2 95
262 2 96
925 2 97
912 2 98
407 2 99
803 3 4
686 3 5
377 3 6
403 3 7
192 3 8
108 3 9
593 3 10
968 3 11
277 3 12
142 3 13
288 3 14
252 3 15
338 3 16
587 3 17
616 3 18
61 3 19
340 3 20
345 3 21
430 3 22
639 3 23
669 3 24
295 3 25
802 3 26
682 3 27
26 3 28
645 3 29
562 3 30
207 3 31
233 3 32
378 3 33
188 3 34
276 3 35
626 3 36
398 3 37
619 3 38
726 3 39
253 3 40
642 3 41
476 3 42
463 3 43
636 3 44
596 3 45
242 3 46
393 3 47
922 3 48
311 3 49
974 3 50
994 3 51
949 3 52
843 3 53
883 3 54
768 3 55
832 3 56
584 3 57
241 3 58
270 3 59
901 3 60
105 3 61
304 3 62
487 3 63
425 3 64
207 3 65
520 3 66
266 3 67
511 3 68
27 3 69
566 3 70
247 3 71
305 3 72
449 3 73
505 3 74
634 3 75
28 3 76
569 3 77
182 3 78
477 3 79
660 3 80
943 3 81
273 3 82
115 3 83
592 3 84
205 3 85
909 3 86
50 3 87
831 3 88
552 3 89
166 3 90
72 3 91
204 3 92
760 3 93
252 3 94
610 3 95
318 3 96
628 3 97
915 3 98
632 3 99
114 4 5
870 4 6
985 4 7
941 4 8
309 4 9
682 4 10
560 4 11
102 4 12
148 4 13
469 4 14
309 4 15
561 4 16
647 4 17
155 4 18
151 4 19
768 4 20
430 4 21
377 4 22
28 4 23
510 4 24
322 4 25
885 4 26
400 4 27
881 4 28
519 4 29
283 4 30
512 4 31
993 4 32
856 4 33
73 4 34
342 4 35
271 4 36
332 4 37
285 4 38
221 4 39
345 4 40
384 4 41
869 4 42
104 4 43
62 4 44
469 4 45
536 4 46
94 4 47
957 4 48
139 4 49
371 4 50
833 4 51
939 4 52
934 4 53
670 4 54
335 4 55
892 4 56
888 4 57
24 4 58
352 4 59
129 4 60
511 4 61
480 4 62
154 4 63
611 4 64
608 4 65
654 4 66
49 4 67
791 4 68
676 4 69
2 4 70
50 4 71
251 4 72
578 4 73
827 4 74
490 4 75
416 4 76
542 4 77
842 4 78
747 4 79
232 4 80
320 4 81
928 4 82
895 4 83
785 4 84
352 4 85
460 4 86
592 4 87
267 4 88
809 4 89
858 4 90
319 4 91
887 4 92
83 4 93
457 4 94
755 4 95
161 4 96
373 4 97
236 4 98
244 4 99
599 5 6
434 5 7
811 5 8
520 5 9
474 5 10
404 5 11
514 5 12
958 5 13
708 5 14
695 5 15
59 5 16
442 5 17
514 5 18
303 5 19
680 5 20
337 5 21
573 5 22
12 5 23
955 5 24
597 5 25
732 5 26
757 5 27
721 5 28
946 5 29
636 5 30
987 5 31
684 5 32
858 5 33
898 5 34
111 5 35
361 5 36
415 5 37
120 5 38
975 5 39
106 5 40
415 5 41
86 5 42
229 5 43
644 5 44
564 5 45
355 5 46
568 5 47
923 5 48
628 5 49
652 5 50
663 5 51
628 5 52
742 5 53
509 5 54
787 5 55
731 5 56
887 5 57
638 5 58
637 5 59
167 5 60
236 5 61
263 5 62
520 5 63
931 5 64
817 5 65
335 5 66
711 5 67
790 5 68
473 5 69
809 5 70
442 5 71
341 5 72
486 5 73
488 5 74
189 5 75
376 5 76
788 5 77
949 5 78
882 5 79
306 5 80
489 5 81
590 5 82
601 5 83
292 5 84
280 5 85
905 5 86
628 5 87
661 5 88
966 5 89
594 5 90
744 5 91
731 5 92
844 5 93
65 5 94
56 5 95
101 5 96
646 5 97
239 5 98
756 5 99
500 6 7
915 6 8
371 6 9
291 6 10
342 6 11
527 6 12
800 6 13
509 6 14
85 6 15
925 6 16
185 6 17
364 6 18
840 6 19
945 6 20
455 6 21
547 6 22
873 6 23
541 6 24
18 6 25
264 6 26
215 6 27
610 6 28
999 6 29
70 6 30
628 6 31
777 6 32
441 6 33
214 6 34
162 6 35
634 6 36
707 6 37
223 6 38
681 6 39
125 6 40
77 6 41
59 6 42
996 6 43
296 6 44
701 6 45
180 6 46
597 6 47
928 6 48
471 6 49
358 6 50
62 6 51
883 6 52
472 6 53
95 6 54
17 6 55
702 6 56
208 6 57
733 6 58
234 6 59
562 6 60
46 6 61
767 6 62
292 6 63
628 6 64
968 6 65
991 6 66
145 6 67
341 6 68
555 6 69
550 6 70
743 6 71
839 6 72
912 6 73
289 6 74
23 6 75
522 6 76
592 6 77
818 6 78
487 6 79
102 6 80
89 6 81
681 6 82
802 6 83
233 6 84
121 6 85
765 6 86
894 6 87
827 6 88
10 6 89
389 6 90
319 6 91
839 6 92
415 6 93
684 6 94
138 6 95
413 6 96
398 6 97
397 6 98
452 6 99
759 7 8
390 7 9
107 7 10
772 7 11
913 7 12
195 7 13
605 7 14
511 7 15
204 7 16
200 7 17
503 7 18
707 7 19
868 7 20
421 7 21
300 7 22
261 7 23
889 7 24
137 7 25
235 7 26
815 7 27
331 7 28
369 7 29
896 7 30
740 7 31
658 7 32
345 7 33
364 7 34
262 7 35
732 7 36
818 7 37
983 7 38
314 7 39
688 7 40
845 7 41
421 7 42
610 7 43
858 7 44
959 7 45
711 7 46
76 7 47
848 7 48
278 7 49
940 7 50
265 7 51
5 7 52
331 7 53
424 7 54
168 7 55
484 7 56
48 7 57
651 7 58
75 7 59
984 7 60
100 7 61
924 7 62
299 7 63
737 7 64
564 7 65
744 7 66
512 7 67
305 7 68
261 7 69
150 7 70
259 7 71
127 7 72
343 7 73
485 7 74
8 7 75
236 7 76
108 7 77
320 7 78
238 7 79
156 7 80
297 7 81
64 7 82
81 7 83
176 7 84
252 7 85
571 7 86
154 7 87
154 7 88
871 7 89
84 7 90
956 7 91
976 7 92
196 7 93
763 7 94
394 7 95
836 7 96
362 7 97
223 7 98
880 7 99
971 8 9
166 8 10
305 8 11
951 8 12
581 8 13
797 8 14
914 8 15
238 8 16
29 8 17
185 8 18
223 8 19
45 8 20
105 8 21
58 8 22
972 8 23
523 8 24
396 8 25
327 8 26
575 8 27
378 8 28
770 8 29
950 8 30
231 8 31
417 8 32
548 8 33
984 8 34
709 8 35
27 8 36
917 8 37
744 8 38
593 8 39
878 8 40
691 8 41
310 8 42
704 8 43
887 8 44
290 8 45
911 8 46
788 8 47
251 8 48
806 8 49
607 8 50
525 8 51
681 8 52
175 8 53
849 8 54
455 8 55
479 8 56
570 8 57
573 8 58
579 8 59
906 8 60
710 8 61
116 8 62
555 8 63
402 8 64
828 8 65
41 8 66
904 8 67
797 8 68
906 8 69
49 8 70
878 8 71
234 8 72
777 8 73
948 8 74
379 8 75
857 8 76
230 8 77
180 8 78
652 8 79
449 8 80
254 8 81
269 8 82
104 8 83
858 8 84
46 8 85
517 8 86
465 8 87
213 8 88
954 8 89
646 8 90
272 8 91
561 8 92
548 8 93
994 8 94
144 8 95
535 8 96
367 8 97
511 8 98
502 8 99
63 9 10
772 9 11
867 9 12
727 9 13
820 9 14
429 9 15
673 9 16
675 9 17
22 9 18
649 9 19
820 9 20
905 9 21
447 9 22
719 9 23
636 9 24
922 9 25
193 9 26
670 9 27
399 9 28
650 9 29
277 9 30
156 9 31
841 9 32
421 9 33
70 9 34
437 9 35
695 9 36
246 9 37
192 9 38
999 9 39
713 9 40
502 9 41
627 9 42
219 9 43
46 9 44
19 9 45
797 9 46
967 9 47
252 9 48
247 9 49
374 9 50
762 9 51
144 9 52
179 9 53
845 9 54
591 9 55
115 9 56
251 9 57
828 9 58
734 9 59
854 9 60
51 9 61
136 9 62
439 9 63
167 9 64
34 9 65
691 9 66
425 9 67
892 9 68
342 9 69
429 9 70
210 9 71
607 9 72
913 9 73
280 9 74
919 9 75
227 9 76
259 9 77
235 9 78
526 9 79
94 9 80
295 9 81
738 9 82
290 9 83
416 9 84
34 9 85
691 9 86
456 9 87
987 9 88
369 9 89
508 9 90
431 9 91
803 9 92
707 9 93
236 9 94
653 9 95
199 9 96
272 9 97
279 9 98
600 9 99
281 10 11
71 10 12
518 10 13
145 10 14
331 10 15
358 10 16
718 10 17
48 10 18
306 10 19
181 10 20
191 10 21
204 10 22
15 10 23
332 10 24
768 10 25
922 10 26
459 10 27
423 10 28
482 10 29
712 10 30
707 10 31
174 10 32
346 10 33
922 10 34
653 10 35
514 10 36
242 10 37
764 10 38
690 10 39
765 10 40
826 10 41
321 10 42
45 10 43
2 10 44
715 10 45
996 10 46
890 10 47
469 10 48
701 10 49
517 10 50
738 10 51
915 10 52
170 10 53
607 10 54
702 10 55
645 10 56
722 10 57
383 10 58
890 10 59
529 10 60
696 10 61
647 10 62
604 10 63
570 10 64
748 10 65
868 10 66
605 10 67
833 10 68
267 10 69
629 10 70
568 10 71
228 10 72
852 10 73
381 10 74
928 10 75
862 10 76
188 10 77
379 10 78
703 10 79
422 10 80
53 10 81
744 10 82
468 10 83
285 10 84
890 10 85
304 10 86
556 10 87
138 10 88
686 10 89
68 10 90
812 10 91
160 10 92
494 10 93
903 10 94
414 10 95
539 10 96
492 10 97
440 10 98
883 10 99
719 11 12
637 11 13
688 11 14
632 11 15
682 11 16
477 11 17
845 11 18
699 11 19
843 11 20
626 11 21
725 11 22
56 11 23
242 11 24
966 11 25
879 11 26
463 11 27
809 11 28
289 11 29
678 11 30
776 11 31
724 11 32
46 11 33
712 11 34
122 11 35
589 11 36
788 11 37
6 11 38
512 11 39
611 11 40
649 11 41
773 11 42
198 11 43
620 11 44
362 11 45
805 11 46
90 11 47
465 11 48
422 11 49
510 11 50
846 11 51
297 11 52
627 11 53
124 11 54
949 11 55
728 11 56
696 11 57
347 11 58
252 11 59
401 11 60
750 11 61
467 11 62
811 11 63
626 11 64
89 11 65
946 11 66
972 11 67
15 11 68
171 11 69
70 11 70
219 11 71
626 11 72
426 11 73
506 11 74
822 11 75
449 11 76
969 11 77
659 11 78
791 11 79
688 11 80
237 11 81
683 11 82
952 11 83
505 11 84
545 11 85
14 11 86
951 11 87
993 11 88
100 11 89
235 11 90
82 11 91
436 11 92
640 11 93
829 11 94
444 11 95
380 11 96
399 11 97
211 11 98
305 11 99
334 12 13
449 12 14
629 12 15
422 12 16
966 12 17
329 12 18
552 12 19
821 12 20
509 12 21
665 12 22
283 12 23
223 12 24
311 12 25
539 12 26
403 12 27
90 12 28
442 12 29
410 12 30
724 12 31
342 12 32
459 12 33
96 12 34
209 12 35
762 12 36
683 12 37
9 12 38
742 12 39
868 12 40
67 12 41
391 12 42
915 12 43
89 12 44
67 12 45
416 12 46
36 12 47
490 12 48
329 12 49
461 12 50
255 12 51
976 12 52
336 12 53
108 12 54
901 12 55
49 12 56
303 12 57
313 12 58
445 12 59
588 12 60
244 12 61
472 12 62
166 12 63
273 12 64
864 12 65
741 12 66
363 12 67
124 12 68
141 12 69
888 12 70
836 12 71
683 12 72
77 12 73
851 12 74
434 12 75
550 12 76
965 12 77
774 12 78
530 12 79
127 12 80
954 12 81
758 12 82
231 12 83
634 12 84
859 12 85
937 12 86
785 12 87
574 12 88
711 12 89
837 12 90
90 12 91
332 12 92
744 12 93
961 12 94
371 12 95
537 12 96
952 12 97
852 12 98
602 12 99
487 13 14
434 13 15
757 13 16
327 13 17
664 13 18
117 13 19
90 13 20
951 13 21
701 13 22
708 13 23
749 13 24
705 13 25
980 13 26
162 13 27
524 13 28
367 13 29
392 13 30
164 13 31
472 13 32
863 13 33
742 13 34
895 13 35
296 13 36
586 13 37
469 13 38
933 13 39
23 13 40
29 13 41
101 13 42
313 13 43
915 13 44
494 13 45
500 13 46
419 13 47
312 13 48
553 13 49
924 13 50
432 13 51
324 13 52
84 13 53
817 13 54
601 13 55
476 13 56
807 13 57
801 13 58
48 13 59
823 13 60
752 13 61
645 13 62
574 13 63
553 13 64
646 13 65
368 13 66
760 13 67
635 13 68
685 13 69
397 13 70
499 13 71
321 13 72
642 13 73
574 13 74
85 13 75
412 13 76
647 13 77
298 13 78
342 13 79
233 13 80
504 13 81
518 13 82
584 13 83
65 13 84
183 13 85
191 13 86
947 13 87
75 13 88
133 13 89
287 13 90
788 13 91
391 13 92
979 13 93
271 13 94
566 13 95
164 13 96
304 13 97
980 13 98
985 13 99
933 14 15
411 14 16
845 14 17
826 14 18
199 14 19
139 14 20
667 14 21
484 14 22
494 14 23
404 14 24
274 14 25
382 14 26
112 14 27
758 14 28
375 14 29
676 14 30
658 14 31
409 14 32
682 14 33
442 14 34
114 14 35
171 14 36
6 14 37
334 14 38
492 14 39
374 14 40
247 14 41
14 14 42
273 14 43
587 14 44
211 14 45
866 14 46
333 14 47
755 14 48
724 14 49
923 14 50
448 14 51
496 14 52
573 14 53
964 14 54
608 14 55
615 14 56
147 14 57
176 14 58
525 14 59
241 14 60
366 14 61
124 14 62
45 14 63
122 14 64
864 14 65
711 14 66
912 14 67
225 14 68
165 14 69
719 14 70
759 14 71
537 14 72
964 14 73
789 14 74
600 14 75
368 14 76
101 14 77
708 14 78
813 14 79
678 14 80
579 14 81
29 14 82
614 14 83
112 14 84
52 14 85
599 14 86
36 14 87
326 14 88
126 14 89
758 14 90
800 14 91
537 14 92
468 14 93
657 14 94
771 14 95
650 14 96
641 14 97
840 14 98
703 14 99
487 15 16
149 15 17
518 15 18
886 15 19
270 15 20
446 15 21
387 15 22
10 15 23
175 15 24
329 15 25
126 15 26
948 15 27
412 15 28
137 15 29
545 15 30
384 15 31
741 15 32
575 15 33
236 15 34
889 15 35
858 15 36
674 15 37
623 15 38
642 15 39
584 15 40
297 15 41
778 15 42
677 15 43
592 15 44
871 15 45
544 15 46
934 15 47
268 15 48
981 15 49
619 15 50
170 15 51
643 15 52
903 15 53
769 15 54
117 15 55
351 15 56
984 15 57
816 15 58
146 15 59
925 15 60
687 15 61
566 15 62
503 15 63
253 15 64
950 15 65
36 15 66
647 15 67
803 15 68
816 15 69
659 15 70
41 15 71
669 15 72
412 15 73
840 15 74
737 15 75
53 15 76
271 15 77
764 15 78
38 15 79
1 15 80
326 15 81
455 15 82
740 15 83
466 15 84
636 15 85
518 15 86
754 15 87
898 15 88
561 15 89
482 15 90
647 15 91
921 15 92
540 15 93
580 15 94
89 15 95
105 15 96
467 15 97
470 15 98
854 15 99
417 16 17
600 16 18
987 16 19
670 16 20
967 16 21
245 16 22
969 16 23
224 16 24
105 16 25
747 16 26
838 16 27
893 16 28
702 16 29
488 16 30
769 16 31
554 16 32
49 16 33
440 16 34
987 16 35
666 16 36
398 16 37
429 16 38
445 16 39
291 16 40
375 16 41
33 16 42
307 16 43
247 16 44
409 16 45
211 16 46
554 16 47
118 16 48
763 16 49
561 16 50
350 16 51
418 16 52
7 16 53
869 16 54
839 16 55
11 16 56
324 16 57
299 16 58
565 16 59
596 16 60
811 16 61
178 16 62
81 16 63
174 16 64
137 16 65
593 16 66
614 16 67
883 16 68
92 16 69
131 16 70
264 16 71
982 16 72
465 16 73
758 16 74
92 16 75
833 16 76
629 16 77
521 16 78
616 16 79
183 16 80
642 16 81
796 16 82
188 16 83
851 16 84
437 16 85
532 16 86
970 16 87
569 16 88
22 16 89
647 16 90
137 16 91
691 16 92
816 16 93
517 16 94
296 16 95
222 16 96
817 16 97
239 16 98
841 16 99
583 17 18
804 17 19
852 17 20
348 17 21
456 17 22
869 17 23
866 17 24
742 17 25
615 17 26
116 17 27
299 17 28
761 17 29
857 17 30
822 17 31
888 17 32
638 17 33
59 17 34
793 17 35
585 17 36
888 17 37
897 17 38
15 17 39
302 17 40
443 17 41
475 17 42
396 17 43
32 17 44
21 17 45
924 17 46
75 17 47
707 17 48
500 17 49
924 17 50
477 17 51
416 17 52
648 17 53
585 17 54
772 17 55
230 17 56
761 17 57
578 17 58
40 17 59
393 17 60
940 17 61
244 17 62
807 17 63
214 17 64
763 17 65
272 17 66
962 17 67
93 17 68
971 17 69
669 17 70
86 17 71
568 17 72
834 17 73
386 17 74
280 17 75
355 17 76
480 17 77
567 17 78
933 17 79
653 17 80
117 17 81
52 17 82
945 17 83
286 17 84
428 17 85
769 17 86
862 17 87
817 17 88
278 17 89
688 17 90
991 17 91
292 17 92
650 17 93
585 17 94
141 17 95
941 17 96
555 17 97
12 17 98
418 17 99
456 18 19
602 18 20
852 18 21
292 18 22
774 18 23
518 18 24
618 18 25
852 18 26
296 18 27
442 18 28
343 18 29
920 18 30
988 18 31
382 18 32
22 18 33
390 18 34
871 18 35
728 18 36
9 18 37
26 18 38
780 18 39
652 18 40
363 18 41
146 18 42
356 18 43
161 18 44
950 18 45
799 18 46
494 18 47
167 18 48
942 18 49
823 18 50
17 18 51
246 18 52
710 18 53
657 18 54
968 18 55
472 18 56
345 18 57
384 18 58
69 18 59
986 18 60
667 18 61
764 18 62
881 18 63
678 18 64
642 18 65
117 18 66
914 18 67
669 18 68
671 18 69
426 18 70
134 18 71
635 18 72
233 18 73
569 18 74
888 18 75
827 18 76
244 18 77
31 18 78
321 18 79
446 18 80
710 18 81
122 18 82
224 18 83
678 18 84
410 18 85
477 18 86
525 18 87
759 18 88
657 18 89
196 18 90
298 18 91
968 18 92
165 18 93
233 18 94
59 18 95
318 18 96
168 18 97
550 18 98
336 18 99
682 19 20
421 19 21
724 19 22
848 19 23
444 19 24
380 19 25
675 19 26
65 19 27
312 19 28
668 19 29
587 19 30
125 19 31
168 19 32
180 19 33
451 19 34
470 19 35
450 19 36
650 19 37
479 19 38
846 19 39
443 19 40
856 19 41
31 19 42
944 19 43
324 19 44
452 19 45
526 19 46
507 19 47
309 19 48
303 19 49
233 19 50
232 19 51
975 19 52
521 19 53
785 19 54
682 19 55
454 19 56
867 19 57
234 19 58
702 19 59
54 19 60
324 19 61
956 19 62
403 19 63
37 19 64
432 19 65
529 19 66
787 19 67
730 19 68
29 19 69
969 19 70
818 19 71
749 19 72
0 19 73
755 19 74
447 19 75
535 19 76
512 19 77
653 19 78
465 19 79
51 19 80
737 19 81
61 19 82
571 19 83
837 19 84
837 19 85
512 19 86
955 19 87
969 19 88
437 19 89
668 19 90
24 19 91
575 19 92
846 19 93
594 19 94
674 19 95
686 19 96
994 19 97
430 19 98
310 19 99
159 20 21
908 20 22
913 20 23
122 20 24
60 20 25
592 20 26
46 20 27
582 20 28
392 20 29
697 20 30
52 20 31
964 20 32
408 20 33
373 20 34
52 20 35
193 20 36
99 20 37
295 20 38
11 20 39
476 20 40
990 20 41
588 20 42
754 20 43
662 20 44
939 20 45
232 20 46
460 20 47
251 20 48
442 20 49
842 20 50
880 20 51
888 20 52
224 20 53
781 20 54
88 20 55
461 20 56
456 20 57
48 20 58
9 20 59
69 20 60
0 20 61
888 20 62
972 20 63
60 20 64
405 20 65
28 20 66
108 20 67
649 20 68
137 20 69
425 20 70
425 20 71
844 20 72
908 20 73
727 20 74
852 20 75
889 20 76
520 20 77
316 20 78
788 20 79
933 20 80
794 20 81
472 20 82
192 20 83
704 20 84
494 20 85
209 20 86
702 20 87
564 20 88
946 20 89
536 20 90
100 20 91
966 20 92
237 20 93
99 20 94
93 20 95
602 20 96
225 20 97
36 20 98
486 20 99
828 21 22
176 21 23
818 21 24
329 21 25
148 21 26
347 21 27
14 21 28
745 21 29
617 21 30
240 21 31
993 21 32
8 21 33
545 21 34
157 21 35
756 21 36
566 21 37
655 21 38
312 21 39
352 21 40
2 21 41
183 21 42
232 21 43
208 21 44
590 21 45
575 21 46
66 21 47
643 21 48
598 21 49
158 21 50
53 21 51
414 21 52
561 21 53
561 21 54
679 21 55
201 21 56
340 21 57
35 21 58
323 21 59
289 21 60
35 21 61
933 21 62
562 21 63
759 21 64
825 21 65
702 21 66
411 21 67
86 21 68
785 21 69
973 21 70
30 21 71
435 21 72
206 21 73
325 21 74
413 21 75
128 21 76
944 21 77
232 21 78
988 21 79
433 21 80
713 21 81
855 21 82
927 21 83
626 21 84
63 21 85
553 21 86
958 21 87
600 21 88
810 21 89
410 21 90
549 21 91
376 21 92
744 21 93
797 21 94
799 21 95
478 21 96
679 21 97
813 21 98
292 21 99
71 22 23
59 22 24
601 22 25
152 22 26
48 22 27
32 22 28
559 22 29
46 22 30
112 22 31
211 22 32
522 22 33
821 22 34
747 22 35
92 22 36
846 22 37
353 22 38
889 22 39
374 22 40
147 22 41
869 22 42
870 22 43
58 22 44
968 22 45
664 22 46
315 22 47
177 22 48
811 22 49
38 22 50
542 22 51
209 22 52
6 22 53
305 22 54
229 22 55
642 22 56
587 22 57
423 22 58
848 22 59
937 22 60
708 22 61
853 22 62
888 22 63
789 22 64
596 22 65
924 22 66
394 22 67
664 22 68
306 22 69
995 22 70
97 22 71
696 22 72
632 22 73
349 22 74
467 22 75
910 22 76
430 22 77
469 22 78
827 22 79
366 22 80
748 22 81
143 22 82
479 22 83
865 22 84
736 22 85
577 22 86
834 22 87
983 22 88
621 22 89
666 22 90
324 22 91
345 22 92
853 22 93
249 22 94
704 22 95
734 22 96
87 22 97
737 22 98
87 22 99
93 23 24
436 23 25
979 23 26
596 23 27
883 23 28
399 23 29
573 23 30
679 23 31
692 23 32
236 23 33
226 23 34
614 23 35
623 23 36
795 23 37
826 23 38
113 23 39
61 23 40
948 23 41
700 23 42
604 23 43
346 23 44
332 23 45
713 23 46
563 23 47
720 23 48
97 23 49
42 23 50
952 23 51
920 23 52
195 23 53
709 23 54
297 23 55
546 23 56
924 23 57
595 23 58
248 23 59
143 23 60
249 23 61
334 23 62
627 23 63
469 23 64
921 23 65
361 23 66
597 23 67
147 23 68
470 23 69
112 23 70
868 23 71
182 23 72
609 23 73
891 23 74
709 23 75
115 23 76
459 23 77
781 23 78
484 23 79
725 23 80
105 23 81
41 23 82
313 23 83
642 23 84
831 23 85
135 23 86
631 23 87
393 23 88
785 23 89
59 23 90
63 23 91
806 23 92
158 23 93
198 23 94
797 23 95
41 23 96
742 23 97
226 23 98
376 23 99
28 24 25
773 24 26
32 24 27
536 24 28
884 24 29
248 24 30
597 24 31
299 24 32
562 24 33
912 24 34
324 24 35
609 24 36
66 24 37
796 24 38
909 24 39
377 24 40
11 24 41
12 24 42
855 24 43
531 24 44
808 24 45
524 24 46
745 24 47
800 24 48
318 24 49
205 24 50
48 24 51
206 24 52
944 24 53
282 24 54
100 24 55
536 24 56
704 24 57
273 24 58
467 24 59
437 24 60
559 24 61
112 24 62
426 24 63
744 24 64
542 24 65
11 24 66
113 24 67
985 24 68
877 24 69
579 24 70
542 24 71
186 24 72
28 24 73
929 24 74
485 24 75
500 24 76
168 24 77
668 24 78
263 24 79
666 24 80
249 24 81
647 24 82
841 24 83
6 24 84
986 24 85
78 24 86
191 24 87
643 24 88
504 24 89
18 24 90
71 24 91
28 24 92
334 24 93
10 24 94
682 24 95
91 24 96
336 24 97
413 24 98
761 24 99
332 25 26
103 25 27
422 25 28
229 25 29
530 25 30
581 25 31
415 25 32
490 25 33
410 25 34
817 25 35
305 25 36
844 25 37
319 25 38
517 25 39
379 25 40
779 25 41
646 25 42
174 25 43
993 25 44
171 25 45
179 25 46
572 25 47
391 25 48
815 25 49
827 25 50
306 25 51
774 25 52
830 25 53
604 25 54
40 25 55
253 25 56
662 25 57
897 25 58
352 25 59
84 25 60
721 25 61
883 25 62
141 25 63
942 25 64
877 25 65
197 25 66
675 25 67
245 25 68
417 25 69
398 25 70
163 25 71
706 25 72
677 25 73
708 25 74
789 25 75
148 25 76
336 25 77
607 25 78
475 25 79
185 25 80
744 25 81
187 25 82
379 25 83
491 25 84
30 25 85
299 25 86
638 25 87
773 25 88
983 25 89
762 25 90
39 25 91
46 25 92
162 25 93
699 25 94
70 25 95
157 25 96
431 25 97
629 25 98
557 25 99
86 26 27
373 26 28
759 26 29
114 26 30
339 26 31
895 26 32
74 26 33
847 26 34
455 26 35
215 26 36
606 26 37
135 26 38
367 26 39
916 26 40
293 26 41
121 26 42
274 26 43
600 26 44
336 26 45
465 26 46
850 26 47
509 26 48
374 26 49
550 26 50
115 26 51
393 26 52
116 26 53
846 26 54
44 26 55
783 26 56
74 26 57
89 26 58
988 26 59
496 26 60
170 26 61
652 26 62
95 26 63
802 26 64
222 26 65
868 26 66
545 26 67
728 26 68
74 26 69
54 26 70
546 26 71
466 26 72
696 26 73
908 26 74
794 26 75
790 26 76
163 26 77
515 26 78
310 26 79
263 26 80
14 26 81
771 26 82
52 26 83
717 26 84
789 26 85
534 26 86
68 26 87
805 26 88
964 26 89
861 26 90
600 26 91
267 26 92
687 26 93
407 26 94
734 26 95
149 26 96
698 26 97
571 26 98
146 26 99
489 27 28
586 27 29
393 27 30
201 27 31
610 27 32
243 27 33
84 27 34
676 27 35
543 27 36
604 27 37
826 27 38
313 27 39
885 27 40
24 27 41
791 27 42
481 27 43
62 27 44
750 27 45
854 27 46
797 27 47
521 27 48
867 27 49
202 27 50
826 27 51
324 27 52
742 27 53
668 27 54
887 27 55
160 27 56
412 27 57
718 27 58
940 27 59
44 27 60
470 27 61
896 27 62
757 27 63
572 27 64
384 27 65
960 27 66
639 27 67
499 27 68
771 27 69
631 27 70
963 27 71
255 27 72
581 27 73
506 27 74
745 27 75
589 27 76
87 27 77
110 27 78
438 27 79
892 27 80
111 27 81
712 27 82
897 27 83
773 27 84
287 27 85
307 27 86
594 27 87
675 27 88
110 27 89
35 27 90
932 27 91
96 27 92
502 27 93
730 27 94
974 27 95
425 27 96
934 27 97
121 27 98
124 27 99
691 28 29
456 28 30
978 28 31
235 28 32
638 28 33
997 28 34
11 28 35
444 28 36
312 28 37
496 28 38
30 28 39
376 28 40
797 28 41
928 28 42
190 28 43
766 28 44
110 28 45
490 28 46
316 28 47
72 28 48
543 28 49
599 28 50
755 28 51
157 28 52
582 28 53
138 28 54
113 28 55
323 28 56
249 28 57
237 28 58
119 28 59
130 28 60
614 28 61
131 28 62
571 28 63
49 28 64
769 28 65
881 28 66
140 28 67
739 28 68
18 28 69
729 28 70
621 28 71
98 28 72
357 28 73
847 28 74
942 28 75
944 28 76
526 28 77
664 28 78
807 28 79
873 28 80
228 28 81
55 28 82
846 28 83
597 28 84
829 28 85
818 28 86
683 28 87
380 28 88
202 28 89
772 28 90
546 28 91
683 28 92
157 28 93
789 28 94
697 28 95
662 28 96
0 28 97
903 28 98
995 28 99
814 29 30
112 29 31
682 29 32
852 29 33
573 29 34
234 29 35
762 29 36
310 29 37
432 29 38
909 29 39
175 29 40
547 29 41
493 29 42
432 29 43
182 29 44
12 29 45
100 29 46
325 29 47
966 29 48
897 29 49
898 29 50
526 29 51
317 29 52
426 29 53
292 29 54
902 29 55
100 29 56
765 29 57
274 29 58
460 29 59
872 29 60
649 29 61
340 29 62
700 29 63
235 29 64
971 29 65
569 29 66
942 29 67
867 29 68
303 29 69
557 29 70
307 29 71
1 29 72
353 29 73
66 29 74
709 29 75
588 29 76
692 29 77
235 29 78
22 29 79
918 29 80
635 29 81
501 29 82
700 29 83
247 29 84
54 29 85
263 29 86
899 29 87
418 29 88
72 29 89
956 29 90
588 29 91
893 29 92
678 29 93
318 29 94
813 29 95
252 29 96
418 29 97
565 29 98
1 29 99
720 30 31
969 30 32
368 30 33
697 30 34
172 30 35
465 30 36
371 30 37
386 30 38
945 30 39
600 30 40
362 30 41
33 30 42
530 30 43
825 30 44
757 30 45
589 30 46
74 30 47
0 30 48
692 30 49
820 30 50
381 30 51
263 30 52
957 30 53
136 30 54
205 30 55
162 30 56
467 30 57
411 30 58
278 30 59
217 30 60
449 30 61
313 30 62
947 30 63
859 30 64
936 30 65
750 30 66
634 30 67
707 30 68
590 30 69
871 30 70
221 30 71
414 30 72
864 30 73
933 30 74
803 30 75
818 30 76
337 30 77
295 30 78
303 30 79
494 30 80
162 30 81
31 30 82
7 30 83
877 30 84
628 30 85
865 30 86
575 30 87
612 30 88
300 30 89
615 30 90
839 30 91
743 30 92
679 30 93
488 30 94
539 30 95
495 30 96
431 30 97
298 30 98
777 30 99
791 31 32
316 31 33
117 31 34
288 31 35
551 31 36
382 31 37
690 31 38
23 31 39
88 31 40
553 31 41
4 31 42
340 31 43
576 31 44
818 31 45
366 31 46
598 31 47
265 31 48
34 31 49
918 31 50
373 31 51
886 31 52
121 31 53
776 31 54
144 31 55
261 31 56
724 31 57
981 31 58
551 31 59
131 31 60
434 31 61
870 31 62
747 31 63
12 31 64
12 31 65
851 31 66
778 31 67
466 31 68
347 31 69
969 31 70
856 31 71
921 31 72
662 31 73
212 31 74
426 31 75
24 31 76
60 31 77
817 31 78
604 31 79
202 31 80
574 31 81
447 31 82
102 31 83
734 31 84
489 31 85
638 31 86
386 31 87
155 31 88
91 31 89
97 31 90
105 31 91
760 31 92
395 31 93
920 31 94
599 31 95
91 31 96
550 31 97
418 31 98
996 31 99
281 32 33
216 32 34
593 32 35
484 32 36
262 32 37
560 32 38
190 32 39
97 32 40
813 32 41
311 32 42
766 32 43
456 32 44
817 32 45
825 32 46
149 32 47
26 32 48
717 32 49
220 32 50
874 32 51
203 32 52
161 32 53
762 32 54
379 32 55
688 32 56
414 32 57
482 32 58
67 32 59
908 32 60
565 32 61
980 32 62
400 32 63
4 32 64
690 32 65
932 32 66
850 32 67
541 32 68
407 32 69
246 32 70
58 32 71
258 32 72
958 32 73
251 32 74
831 32 75
338 32 76
590 32 77
539 32 78
798 32 79
545 32 80
827 32 81
460 32 82
851 32 83
221 32 84
903 32 85
593 32 86
219 32 87
620 32 88
325 32 89
422 32 90
388 32 91
164 32 92
855 32 93
683 32 94
231 32 95
236 32 96
54 32 97
536 32 98
189 32 99
105 33 34
539 33 35
664 33 36
480 33 37
643 33 38
212 33 39
353 33 40
787 33 41
346 33 42
121 33 43
35 33 44
717 33 45
890 33 46
863 33 47
302 33 48
329 33 49
743 33 50
588 33 51
81 33 52
17 33 53
53 33 54
228 33 55
664 33 56
357 33 57
70 33 58
508 33 59
526 33 60
655 33 61
722 33 62
773 33 63
252 33 64
217 33 65
242 33 66
196 33 67
632 33 68
361 33 69
822 33 70
527 33 71
649 33 72
339 33 73
560 33 74
130 33 75
649 33 76
767 33 77
360 33 78
826 33 79
941 33 80
69 33 81
824 33 82
82 33 83
362 33 84
22 33 85
739 33 86
597 33 87
752 33 88
909 33 89
82 33 90
419 33 91
939 33 92
422 33 93
560 33 94
751 33 95
167 33 96
774 33 97
463 33 98
32 33 99
140 34 35
524 34 36
193 34 37
127 34 38
354 34 39
118 34 40
740 34 41
224 34 42
983 34 43
662 34 44
616 34 45
221 34 46
519 34 47
454 34 48
434 34 49
831 34 50
515 34 51
25 34 52
958 34 53
638 34 54
181 34 55
141 34 56
568 34 57
371 34 58
66 34 59
134 34 60
676 34 61
324 34 62
321 34 63
325 34 64
960 34 65
288 34 66
52 34 67
729 34 68
526 34 69
507 34 70
549 34 71
684 34 72
398 34 73
828 34 74
419 34 75
353 34 76
619 34 77
54 34 78
276 34 79
796 34 80
524 34 81
172 34 82
956 34 83
131 34 84
662 34 85
600 34 86
543 34 87
75 34 88
648 34 89
501 34 90
924 34 91
399 34 92
600 34 93
403 34 94
548 34 95
797 34 96
212 34 97
396 34 98
409 34 99
888 35 36
348 35 37
597 35 38
265 35 39
293 35 40
726 35 41
558 35 42
373 35 43
408 35 44
697 35 45
534 35 46
405 35 47
871 35 48
262 35 49
793 35 50
815 35 51
451 35 52
563 35 53
395 35 54
615 35 55
666 35 56
355 35 57
65 35 58
401 35 59
207 35 60
691 35 61
798 35 62
469 35 63
278 35 64
77 35 65
835 35 66
355 35 67
154 35 68
626 35 69
363 35 70
631 35 71
362 35 72
900 35 73
78 35 74
974 35 75
404 35 76
242 35 77
140 35 78
426 35 79
616 35 80
800 35 81
37 35 82
321 35 83
481 35 84
510 35 85
742 35 86
37 35 87
559 35 88
471 35 89
439 35 90
328 35 91
256 35 92
141 35 93
891 35 94
735 35 95
320 35 96
162 35 97
743 35 98
209 35 99
759 36 37
554 36 38
742 36 39
727 36 40
2 36 41
776 36 42
940 36 43
989 36 44
996 36 45
247 36 46
626 36 47
114 36 48
126 36 49
434 36 50
297 36 51
117 36 52
189 36 53
413 36 54
331 36 55
168 36 56
332 36 57
229 36 58
350 36 59
178 36 60
625 36 61
741 36 62
266 36 63
480 36 64
100 36 65
60 36 66
838 36 67
699 36 68
245 36 69
763 36 70
406 36 71
192 36 72
485 36 73
731 36 74
583 36 75
827 36 76
385 36 77
302 36 78
942 36 79
501 36 80
730 36 81
980 36 82
158 36 83
481 36 84
928 36 85
786 36 86
584 36 87
393 36 88
720 36 89
78 36 90
184 36 91
294 36 92
171 36 93
349 36 94
13 36 95
168 36 96
793 36 97
273 36 98
497 36 99
962 37 38
934 37 39
645 37 40
66 37 41
690 37 42
780 37 43
283 37 44
801 37 45
304 37 46
81 37 47
297 37 48
777 37 49
413 37 50
147 37 51
934 37 52
250 37 53
637 37 54
521 37 55
203 37 56
430 37 57
656 37 58
155 37 59
680 37 60
907 37 61
197 37 62
61 37 63
188 37 64
955 37 65
984 37 66
664 37 67
290 37 68
448 37 69
470 37 70
993 37 71
960 37 72
100 37 73
142 37 74
14 37 75
705 37 76
504 37 77
875 37 78
142 37 79
486 37 80
91 37 81
695 37 82
25 37 83
776 37 84
629 37 85
146 37 86
408 37 87
842 37 88
533 37 89
388 37 90
998 37 91
612 37 92
608 37 93
47 37 94
239 37 95
778 37 96
651 37 97
904 37 98
511 37 99
583 38 39
3 38 40
175 38 41
367 38 42
68 38 43
690 38 44
260 38 45
547 38 46
950 38 47
957 38 48
637 38 49
704 38 50
959 38 51
580 38 52
222 38 53
940 38 54
667 38 55
705 38 56
744 38 57
574 38 58
709 38 59
293 38 60
45 38 61
536 38 62
739 38 63
495 38 64
875 38 65
729 38 66
8 38 67
934 38 68
695 38 69
224 38 70
768 38 71
897 38 72
363 38 73
542 38 74
625 38 75
221 38 76
547 38 77
596 38 78
953 38 79
311 38 80
861 38 81
677 38 82
634 38 83
675 38 84
120 38 85
933 38 86
285 38 87
701 38 88
342 38 89
546 38 90
414 38 91
613 38 92
876 38 93
985 38 94
68 38 95
664 38 96
657 38 97
636 38 98
60 38 99
836 39 40
149 39 41
923 39 42
518 39 43
452 39 44
269 39 45
89 39 46
656 39 47
117 39 48
460 39 49
608 39 50
633 39 51
840 39 52
924 39 53
287 39 54
497 39 55
778 39 56
309 39 57
435 39 58
688 39 59
800 39 60
957 39 61
396 39 62
628 39 63
134 39 64
153 39 65
722 39 66
358 39 67
26 39 68
474 39 69
303 39 70
23 39 71
661 39 72
780 39 73
886 39 74
879 39 75
106 39 76
459 39 77
117 39 78
15 39 79
2 39 80
551 39 81
191 39 82
56 39 83
398 39 84
913 39 85
837 39 86
899 39 87
95 39 88
734 39 89
574 39 90
218 39 91
235 39 92
12 39 93
276 39 94
622 39 95
232 39 96
403 39 97
354 39 98
587 39 99
686 40 41
118 40 42
691 40 43
745 40 44
680 40 45
426 40 46
91 40 47
653 40 48
420 40 49
982 40 50
284 40 51
623 40 52
3 40 53
859 40 54
650 40 55
573 40 56
267 40 57
253 40 58
640 40 59
24 40 60
499 40 61
595 40 62
639 40 63
133 40 64
126 40 65
108 40 66
883 40 67
734 40 68
787 40 69
947 40 70
881 40 71
642 40 72
28 40 73
948 40 74
766 40 75
979 40 76
207 40 77
951 40 78
442 40 79
86 40 80
74 40 81
221 40 82
325 40 83
1 40 84
986 40 85
216 40 86
680 40 87
912 40 88
773 40 89
544 40 90
87 40 91
888 40 92
669 40 93
651 40 94
149 40 95
671 40 96
944 40 97
717 40 98
457 40 99
435 41 42
183 41 43
592 41 44
231 41 45
931 41 46
396 41 47
37 41 48
346 41 49
3 41 50
752 41 51
476 41 52
465 41 53
412 41 54
867 41 55
504 41 56
520 41 57
35 41 58
85 41 59
479 41 60
441 41 61
856 41 62
900 41 63
793 41 64
882 41 65
803 41 66
719 41 67
615 41 68
480 41 69
522 41 70
819 41 71
718 41 72
548 41 73
493 41 74
772 41 75
475 41 76
261 41 77
774 41 78
414 41 79
561 41 80
23 41 81
467 41 82
564 41 83
608 41 84
458 41 85
542 41 86
953 41 87
497 41 88
694 41 89
143 41 90
637 41 91
224 41 92
21 41 93
567 41 94
522 41 95
881 41 96
41 41 97
753 41 98
567 41 99
294 42 43
9 42 44
589 42 45
693 42 46
631 42 47
22 42 48
508 42 49
641 42 50
219 42 51
290 42 52
475 42 53
129 42 54
871 42 55
931 42 56
81 42 57
163 42 58
53 42 59
109 42 60
603 42 61
602 42 62
574 42 63
214 42 64
875 42 65
481 42 66
890 42 67
437 42 68
724 42 69
325 42 70
631 42 71
357 42 72
714 42 73
567 42 74
753 42 75
735 42 76
759 42 77
935 42 78
385 42 79
54 42 80
912 42 81
151 42 82
473 42 83
31 42 84
322 42 85
943 42 86
727 42 87
56 42 88
695 42 89
36 42 90
0 42 91
496 42 92
709 42 93
975 42 94
215 42 95
64 42 96
81 42 97
499 42 98
870 42 99
864 43 44
688 43 45
655 43 46
204 43 47
933 43 48
334 43 49
341 43 50
311 43 51
122 43 52
834 43 53
961 43 54
548 43 55
596 43 56
274 43 57
630 43 58
677 43 59
123 43 60
747 43 61
606 43 62
994 43 63
389 43 64
684 43 65
945 43 66
899 43 67
933 43 68
419 43 69
584 43 70
845 43 71
933 43 72
208 43 73
233 43 74
347 43 75
175 43 76
33 43 77
974 43 78
935 43 79
186 43 80
21 43 81
249 43 82
313 43 83
562 43 84
365 43 85
379 43 86
95 43 87
913 43 88
456 43 89
910 43 90
758 43 91
670 43 92
470 43 93
527 43 94
480 43 95
3 43 96
23 43 97
616 43 98
990 43 99
891 44 45
741 44 46
60 44 47
991 44 48
427 44 49
303 44 50
269 44 51
298 44 52
401 44 53
320 44 54
563 44 55
105 44 56
842 44 57
551 44 58
925 44 59
895 44 60
608 44 61
352 44 62
613 44 63
411 44 64
348 44 65
387 44 66
559 44 67
973 44 68
168 44 69
891 44 70
930 44 71
864 44 72
49 44 73
58 44 74
746 44 75
536 44 76
771 44 77
899 44 78
157 44 79
359 44 80
861 44 81
480 44 82
693 44 83
955 44 84
806 44 85
21 44 86
125 44 87
329 44 88
176 44 89
69 44 90
664 44 91
680 44 92
739 44 93
11 44 94
974 44 95
983 44 96
790 44 97
131 44 98
880 44 99
529 45 46
578 45 47
91 45 48
694 45 49
3 45 50
151 45 51
428 45 52
839 45 53
826 45 54
667 45 55
101 45 56
209 45 57
522 45 58
160 45 59
218 45 60
25 45 61
573 45 62
278 45 63
129 45 64
486 45 65
633 45 66
769 45 67
245 45 68
105 45 69
621 45 70
900 45 71
6 45 72
127 45 73
12 45 74
901 45 75
817 45 76
218 45 77
731 45 78
19 45 79
132 45 80
53 45 81
856 45 82
86 45 83
141 45 84
599 45 85
404 45 86
70 45 87
235 45 88
977 45 89
2 45 90
798 45 91
293 45 92
363 45 93
200 45 94
402 45 95
778 45 96
516 45 97
446 45 98
751 45 99
889 46 47
553 46 48
157 46 49
194 46 50
217 46 51
624 46 52
802 46 53
195 46 54
403 46 55
581 46 56
370 46 57
307 46 58
831 46 59
357 46 60
560 46 61
869 46 62
501 46 63
697 46 64
141 46 65
697 46 66
942 46 67
805 46 68
655 46 69
22 46 70
849 46 71
466 46 72
373 46 73
457 46 74
393 46 75
280 46 76
378 46 77
561 46 78
103 46 79
584 46 80
985 46 81
117 46 82
741 46 83
601 46 84
296 46 85
960 46 86
683 46 87
17 46 88
495 46 89
883 46 90
149 46 91
311 46 92
658 46 93
596 46 94
948 46 95
614 46 96
93 46 97
894 46 98
4 46 99
157 47 48
49 47 49
929 47 50
94 47 51
133 47 52
188 47 53
883 47 54
543 47 55
658 47 56
909 47 57
951 47 58
361 47 59
510 47 60
360 47 61
165 47 62
120 47 63
618 47 64
382 47 65
26 47 66
47 47 67
310 47 68
714 47 69
954 47 70
796 47 71
275 47 72
335 47 73
907 47 74
218 47 75
30 47 76
182 47 77
468 47 78
726 47 79
384 47 80
86 47 81
621 47 82
836 47 83
901 47 84
228 47 85
817 47 86
546 47 87
954 47 88
390 47 89
449 47 90
429 47 91
146 47 92
563 47 93
227 47 94
651 47 95
282 47 96
54 47 97
843 47 98
721 47 99
747 48 49
890 48 50
584 48 51
934 48 52
192 48 53
415 48 54
523 48 55
647 48 56
593 48 57
277 48 58
155 48 59
860 48 60
656 48 61
385 48 62
53 48 63
715 48 64
274 48 65
406 48 66
554 48 67
172 48 68
519 48 69
118 48 70
664 48 71
213 48 72
277 48 73
129 48 74
118 48 75
775 48 76
626 48 77
477 48 78
330 48 79
760 48 80
817 48 81
911 48 82
70 48 83
170 48 84
128 48 85
361 48 86
171 48 87
404 48 88
759 48 89
813 48 90
620 48 91
607 48 92
795 48 93
664 48 94
182 48 95
204 48 96
259 48 97
586 48 98
86 48 99
636 49 50
131 49 51
29 49 52
284 49 53
912 49 54
960 49 55
84 49 56
814 49 57
450 49 58
266 49 59
462 49 60
24 49 61
52 49 62
817 49 63
691 49 64
331 49 65
863 49 66
265 49 67
814 49 68
427 49 69
23 49 70
184 49 71
243 49 72
454 49 73
381 49 74
514 49 75
52 49 76
586 49 77
373 49 78
138 49 79
959 49 80
334 49 81
138 49 82
148 49 83
930 49 84
467 49 85
94 49 86
984 49 87
313 49 88
292 49 89
550 49 90
706 49 91
223 49 92
4 49 93
317 49 94
704 49 95
163 49 96
519 49 97
287 49 98
676 49 99
53 50 51
644 50 52
569 50 53
259 50 54
50 50 55
409 50 56
816 50 57
341 50 58
84 50 59
848 50 60
591 50 61
389 50 62
205 50 63
376 50 64
325 50 65
819 50 66
805 50 67
527 50 68
391 50 69
344 50 70
890 50 71
615 50 72
465 50 73
34 50 74
80 50 75
358 50 76
642 50 77
249 50 78
290 50 79
947 50 80
697 50 81
17 50 82
231 50 83
253 50 84
243 50 85
881 50 86
968 50 87
702 50 88
991 50 89
691 50 90
936 50 91
632 50 92
131 50 93
997 50 94
333 50 95
991 50 96
295 50 97
976 50 98
511 50 99
15 51 52
267 51 53
607 51 54
983 51 55
847 51 56
501 51 57
761 51 58
834 51 59
791 51 60
413 51 61
187 51 62
286 51 63
85 51 64
333 51 65
832 51 66
675 51 67
462 51 68
539 51 69
218 51 70
757 51 71
708 51 72
969 51 73
870 51 74
194 51 75
611 51 76
23 51 77
450 51 78
535 51 79
416 51 80
895 51 81
874 51 82
848 51 83
564 51 84
18 51 85
236 51 86
711 51 87
213 51 88
945 51 89
449 51 90
853 51 91
781 51 92
382 51 93
989 51 94
927 51 95
640 51 96
347 51 97
16 51 98
122 51 99
328 52 53
323 52 54
102 52 55
738 52 56
731 52 57
496 52 58
532 52 59
312 52 60
72 52 61
205 52 62
972 52 63
634 52 64
749 52 65
885 52 66
819 52 67
951 52 68
581 52 69
76 52 70
504 52 71
523 52 72
96 52 73
765 52 74
848 52 75
448 52 76
123 52 77
595 52 78
632 52 79
478 52 80
169 52 81
643 52 82
355 52 83
180 52 84
914 52 85
521 52 86
709 52 87
951 52 88
4 52 89
67 52 90
686 52 91
690 52 92
79 52 93
140 52 94
291 52 95
871 52 96
317 52 97
9 52 98
305 52 99
901 53 54
90 53 55
401 53 56
419 53 57
355 53 58
576 53 59
448 53 60
759 53 61
803 53 62
150 53 63
237 53 64
60 53 65
763 53 66
234 53 67
805 53 68
751 53 69
864 53 70
364 53 71
431 53 72
878 53 73
995 53 74
453 53 75
90 53 76
228 53 77
833 53 78
241 53 79
427 53 80
334 53 81
349 53 82
377 53 83
996 53 84
109 53 85
185 53 86
355 53 87
553 53 88
189 53 89
702 53 90
661 53 91
628 53 92
870 53 93
48 53 94
512 53 95
20 53 96
721 53 97
93 53 98
18 53 99
401 54 55
693 54 56
598 54 57
367 54 58
644 54 59
954 54 60
727 54 61
937 54 62
725 54 63
405 54 64
420 54 65
245 54 66
964 54 67
70 54 68
125 54 69
575 54 70
484 54 71
967 54 72
628 54 73
721 54 74
460 54 75
62 54 76
316 54 77
56 54 78
688 54 79
524 54 80
644 54 81
168 54 82
560 54 83
103 54 84
804 54 85
937 54 86
216 54 87
788 54 88
912 54 89
154 54 90
120 54 91
321 54 92
794 54 93
469 54 94
580 54 95
587 54 96
773 54 97
323 54 98
246 54 99
203 55 56
583 55 57
793 55 58
866 55 59
662 55 60
534 55 61
611 55 62
579 55 63
21 55 64
974 55 65
856 55 66
228 55 67
650 55 68
2 55 69
622 55 70
770 55 71
357 55 72
794 55 73
32 55 74
712 55 75
70 55 76
811 55 77
805 55 78
115 55 79
795 55 80
101 55 81
763 55 82
711 55 83
796 55 84
849 55 85
483 55 86
137 55 87
637 55 88
594 55 89
303 55 90
214 55 91
868 55 92
774 55 93
689 55 94
500 55 95
252 55 96
940 55 97
622 55 98
528 55 99
529 56 57
400 56 58
923 56 59
624 56 60
676 56 61
444 56 62
574 56 63
338 56 64
617 56 65
642 56 66
177 56 67
20 56 68
232 56 69
344 56 70
690 56 71
390 56 72
337 56 73
18 56 74
350 56 75
261 56 76
84 56 77
822 56 78
303 56 79
353 56 80
143 56 81
700 56 82
4 56 83
881 56 84
977 56 85
573 56 86
73 56 87
853 56 88
327 56 89
294 56 90
198 56 91
236 56 92
220 56 93
701 56 94
228 56 95
991 56 96
935 56 97
387 56 98
900 56 99
525 57 58
687 57 59
706 57 60
586 57 61
105 57 62
474 57 63
56 57 64
787 57 65
914 57 66
687 57 67
957 57 68
227 57 69
17 57 70
400 57 71
466 57 72
611 57 73
976 57 74
389 57 75
186 57 76
857 57 77
913 57 78
332 57 79
781 57 80
119 57 81
780 57 82
421 57 83
459 57 84
120 57 85
549 57 86
574 57 87
742 57 88
224 57 89
686 57 90
490 57 91
931 57 92
948 57 93
560 57 94
55 57 95
611 57 96
507 57 97
920 57 98
95 57 99
940 58 59
595 58 60
928 58 61
135 58 62
237 58 63
110 58 64
875 58 65
415 58 66
418 58 67
86 58 68
637 58 69
722 58 70
61 58 71
671 58 72
498 58 73
679 58 74
478 58 75
4 58 76
574 58 77
278 58 78
740 58 79
405 58 80
853 58 81
703 58 82
788 58 83
431 58 84
676 58 85
743 58 86
737 58 87
533 58 88
703 58 89
996 58 90
510 58 91
693 58 92
788 58 93
36 58 94
216 58 95
182 58 96
960 58 97
25 58 98
398 58 99
265 59 60
937 59 61
720 59 62
813 59 63
613 59 64
996 59 65
897 59 66
471 59 67
631 59 68
608 59 69
377 59 70
589 59 71
10 59 72
515 59 73
127 59 74
765 59 75
156 59 76
819 59 77
164 59 78
669 59 79
129 59 80
287 59 81
278 59 82
656 59 83
203 59 84
215 59 85
71 59 86
848 59 87
818 59 88
521 59 89
849 59 90
46 59 91
825 59 92
638 59 93
973 59 94
286 59 95
785 59 96
716 59 97
717 59 98
478 59 99
378 60 61
413 60 62
550 60 63
136 60 64
687 60 65
456 60 66
297 60 67
445 60 68
169 60 69
807 60 70
220 60 71
509 60 72
943 60 73
528 60 74
797 60 75
397 60 76
733 60 77
576 60 78
399 60 79
152 60 80
18 60 81
141 60 82
96 60 83
537 60 84
894 60 85
314 60 86
250 60 87
671 60 88
108 60 89
161 60 90
513 60 91
26 60 92
316 60 93
428 60 94
596 60 95
406 60 96
860 60 97
292 60 98
23 60 99
901 61 62
912 61 63
438 61 64
8 61 65
2 61 66
864 61 67
347 61 68
217 61 69
307 61 70
49 61 71
687 61 72
997 61 73
854 61 74
167 61 75
236 61 76
638 61 77
608 61 78
297 61 79
991 61 80
903 61 81
569 61 82
973 61 83
435 61 84
166 61 85
900 61 86
981 61 87
77 61 88
972 61 89
758 61 90
266 61 91
776 61 92
311 61 93
461 61 94
289 61 95
730 61 96
672 61 97
299 61 98
395 61 99
30 62 63
401 62 64
450 62 65
153 62 66
811 62 67
497 62 68
786 62 69
119 62 70
822 62 71
387 62 72
714 62 73
17 62 74
139 62 75
171 62 76
683 62 77
924 62 78
242 62 79
291 62 80
211 62 81
766 62 82
0 62 83
718 62 84
33 62 85
952 62 86
954 62 87
211 62 88
12 62 89
130 62 90
377 62 91
779 62 92
728 62 93
48 62 94
163 62 95
950 62 96
683 62 97
436 62 98
430 62 99
115 63 64
957 63 65
581 63 66
747 63 67
759 63 68
639 63 69
430 63 70
216 63 71
416 63 72
662 63 73
745 63 74
350 63 75
242 63 76
560 63 77
830 63 78
517 63 79
993 63 80
406 63 81
278 63 82
940 63 83
969 63 84
698 63 85
429 63 86
61 63 87
483 63 88
723 63 89
648 63 90
464 63 91
736 63 92
582 63 93
987 63 94
7 63 95
954 63 96
247 63 97
566 63 98
691 63 99
601 64 65
889 64 66
681 64 67
125 64 68
348 64 69
26 64 70
301 64 71
359 64 72
641 64 73
339 64 74
189 64 75
700 64 76
847 64 77
462 64 78
381 64 79
748 64 80
337 64 81
688 64 82
641 64 83
909 64 84
54 64 85
890 64 86
330 64 87
951 64 88
599 64 89
586 64 90
285 64 91
686 64 92
472 64 93
479 64 94
100 64 95
934 64 96
570 64 97
294 64 98
1 64 99
218 65 66
568 65 67
702 65 68
999 65 69
237 65 70
81 65 71
427 65 72
323 65 73
301 65 74
142 65 75
960 65 76
476 65 77
924 65 78
573 65 79
406 65 80
847 65 81
801 65 82
421 65 83
477 65 84
310 65 85
238 65 86
882 65 87
88 65 88
810 65 89
595 65 90
243 65 91
46 65 92
822 65 93
588 65 94
290 65 95
406 65 96
622 65 97
599 65 98
260 65 99
491 66 67
560 66 68
248 66 69
122 66 70
32 66 71
641 66 72
56 66 73
167 66 74
534 66 75
323 66 76
611 66 77
667 66 78
835 66 79
358 66 80
760 66 81
560 66 82
373 66 83
45 66 84
543 66 85
435 66 86
271 66 87
898 66 88
79 66 89
500 66 90
588 66 91
148 66 92
829 66 93
353 66 94
338 66 95
168 66 96
283 66 97
264 66 98
904 66 99
14 67 68
792 67 69
364 67 70
83 67 71
478 67 72
149 67 73
794 67 74
221 67 75
995 67 76
784 67 77
117 67 78
448 67 79
414 67 80
564 67 81
102 67 82
873 67 83
606 67 84
377 67 85
536 67 86
880 67 87
886 67 88
392 67 89
523 67 90
311 67 91
39 67 92
433 67 93
855 67 94
226 67 95
960 67 96
40 67 97
772 67 98
22 67 99
171 68 69
30 68 70
375 68 71
300 68 72
99 68 73
212 68 74
783 68 75
239 68 76
107 68 77
557 68 78
617 68 79
276 68 80
880 68 81
204 68 82
569 68 83
451 68 84
609 68 85
620 68 86
42 68 87
611 68 88
197 68 89
311 68 90
16 68 91
370 68 92
998 68 93
777 68 94
163 68 95
461 68 96
709 68 97
317 68 98
559 68 99
636 69 70
687 69 71
792 69 72
226 69 73
194 69 74
694 69 75
861 69 76
246 69 77
372 69 78
587 69 79
33 69 80
904 69 81
840 69 82
618 69 83
353 69 84
831 69 85
912 69 86
446 69 87
752 69 88
9 69 89
255 69 90
791 69 91
524 69 92
34 69 93
555 69 94
146 69 95
299 69 96
615 69 97
459 69 98
128 69 99
779 70 71
594 70 72
411 70 73
224 70 74
439 70 75
958 70 76
534 70 77
617 70 78
161 70 79
414 70 80
651 70 81
675 70 82
756 70 83
681 70 84
452 70 85
118 70 86
433 70 87
345 70 88
778 70 89
822 70 90
549 70 91
228 70 92
325 70 93
485 70 94
240 70 95
218 70 96
531 70 97
841 70 98
41 70 99
49 71 72
662 71 73
552 71 74
72 71 75
125 71 76
651 71 77
296 71 78
700 71 79
115 71 80
879 71 81
220 71 82
390 71 83
640 71 84
677 71 85
156 71 86
262 71 87
158 71 88
447 71 89
100 71 90
549 71 91
455 71 92
673 71 93
288 71 94
155 71 95
229 71 96
892 71 97
790 71 98
809 71 99
865 72 73
905 72 74
757 72 75
873 72 76
506 72 77
299 72 78
245 72 79
293 72 80
592 72 81
835 72 82
423 72 83
597 72 84
513 72 85
278 72 86
941 72 87
46 72 88
396 72 89
762 72 90
125 72 91
991 72 92
509 72 93
185 72 94
907 72 95
21 72 96
161 72 97
629 72 98
637 72 99
778 73 74
578 73 75
284 73 76
914 73 77
105 73 78
389 73 79
390 73 80
181 73 81
269 73 82
833 73 83
861 73 84
935 73 85
218 73 86
251 73 87
315 73 88
971 73 89
524 73 90
400 73 91
571 73 92
454 73 93
71 73 94
274 73 95
321 73 96
455 73 97
679 73 98
951 73 99
283 74 75
347 74 76
617 74 77
510 74 78
84 74 79
508 74 80
226 74 81
44 74 82
87 74 83
994 74 84
678 74 85
558 74 86
105 74 87
874 74 88
995 74 89
312 74 90
858 74 91
279 74 92
144 74 93
245 74 94
621 74 95
854 74 96
472 74 97
831 74 98
621 74 99
359 75 76
627 75 77
450 75 78
178 75 79
865 75 80
430 75 81
132 75 82
149 75 83
156 75 84
626 75 85
744 75 86
889 75 87
85 75 88
371 75 89
131 75 90
211 75 91
557 75 92
762 75 93
494 75 94
115 75 95
211 75 96
189 75 97
261 75 98
826 75 99
556 76 77
277 76 78
607 76 79
614 76 80
528 76 81
728 76 82
296 76 83
85 76 84
414 76 85
89 76 86
523 76 87
335 76 88
619 76 89
645 76 90
508 76 91
446 76 92
999 76 93
710 76 94
149 76 95
762 76 96
864 76 97
221 76 98
383 76 99
520 77 78
131 77 79
876 77 80
203 77 81
819 77 82
576 77 83
818 77 84
969 77 85
94 77 86
814 77 87
578 77 88
185 77 89
409 77 90
991 77 91
182 77 92
321 77 93
874 77 94
845 77 95
280 77 96
679 77 97
125 77 98
989 77 99
90 78 79
198 78 80
399 78 81
467 78 82
823 78 83
902 78 84
832 78 85
118 78 86
545 78 87
7 78 88
207 78 89
333 78 90
451 78 91
814 78 92
794 78 93
202 78 94
682 78 95
228 78 96
478 78 97
190 78 98
920 78 99
483 79 80
684 79 81
325 79 82
321 79 83
403 79 84
157 79 85
267 79 86
778 79 87
452 79 88
367 79 89
632 79 90
366 79 91
900 79 92
719 79 93
312 79 94
59 79 95
603 79 96
402 79 97
198 79 98
781 79 99
789 80 81
719 80 82
546 80 83
369 80 84
807 80 85
24 80 86
864 80 87
181 80 88
30 80 89
353 80 90
819 80 91
158 80 92
357 80 93
527 80 94
153 80 95
465 80 96
773 80 97
893 80 98
225 80 99
302 81 82
266 81 83
442 81 84
211 81 85
138 81 86
972 81 87
375 81 88
751 81 89
36 81 90
363 81 91
880 81 92
768 81 93
898 81 94
711 81 95
762 81 96
778 81 97
261 81 98
550 81 99
132 82 83
346 82 84
11 82 85
175 82 86
352 82 87
997 82 88
899 82 89
550 82 90
739 82 91
412 82 92
766 82 93
937 82 94
835 82 95
494 82 96
324 82 97
435 82 98
217 82 99
166 83 84
204 83 85
583 83 86
431 83 87
159 83 88
49 83 89
256 83 90
852 83 91
37 83 92
697 83 93
494 83 94
365 83 95
502 83 96
671 83 97
995 83 98
382 83 99
816 84 85
4 84 86
430 84 87
362 84 88
413 84 89
129 84 90
392 84 91
920 84 92
581 84 93
208 84 94
597 84 95
222 84 96
706 84 97
532 84 98
86 84 99
122 85 86
554 85 87
126 85 88
101 85 89
670 85 90
840 85 91
841 85 92
936 85 93
540 85 94
756 85 95
113 85 96
129 85 97
746 85 98
580 85 99
663 86 87
749 86 88
680 86 89
915 86 90
56 86 91
764 86 92
832 86 93
985 86 94
119 86 95
865 86 96
149 86 97
684 86 98
839 86 99
499 87 88
87 87 89
493 87 90
62 87 91
770 87 92
301 87 93
206 87 94
366 87 95
397 87 96
133 87 97
26 87 98
142 87 99
412 88 89
808 88 90
221 88 91
609 88 92
810 88 93
985 88 94
342 88 95
213 88 96
773 88 97
871 88 98
666 88 99
127 89 90
953 89 91
465 89 92
796 89 93
53 89 94
770 89 95
610 89 96
825 89 97
611 89 98
585 89 99
486 90 91
112 90 92
266 90 93
856 90 94
3 90 95
266 90 96
686 90 97
849 90 98
419 90 99
646 91 92
895 91 93
580 91 94
697 91 95
345 91 96
19 91 97
999 91 98
650 91 99
276 92 93
281 92 94
379 92 95
910 92 96
334 92 97
313 92 98
205 92 99
222 93 94
83 93 95
99 93 96
563 93 97
665 93 98
653 93 99
237 94 95
71 94 96
498 94 97
50 94 98
944 94 99
600 95 96
652 95 97
655 95 98
213 95 99
567 96 97
153 96 98
555 96 99
492 97 98
919 97 99
118 98 99
