10
45
88
50
53
28
60
10
72
80
6
94
80 0 1
44 0 2
86 0 3
89 0 4
46 0 5
10 0 6
61 0 7
89 0 8
57 0 9
69 1 2
18 1 3
56 1 4
50 1 5
79 1 6
91 1 7
20 1 8
24 1 9
91 2 3
93 2 4
70 2 5
95 2 6
21 2 7
64 2 8
92 2 9
25 3 4
39 3 5
6 3 6
72 3 7
28 3 8
3 3 9
14 4 5
72 4 6
16 4 7
67 4 8
21 4 9
96 5 6
20 5 7
3 5 8
76 5 9
53 6 7
68 6 8
49 6 9
79 7 8
31 7 9
98 8 9
