50
1225
111
154
182
86
400
195
111
347
130
490
498
484
214
152
478
177
400
245
196
449
418
106
166
389
109
106
147
475
139
318
446
167
285
91
358
216
38
344
423
463
327
321
93
171
348
424
277
109
279
118
106 0 1
186 0 2
44 0 3
439 0 4
394 0 5
372 0 6
393 0 7
5 0 8
445 0 9
366 0 10
263 0 11
162 0 12
369 0 13
154 0 14
56 0 15
429 0 16
379 0 17
434 0 18
274 0 19
280 0 20
137 0 21
111 0 22
84 0 23
487 0 24
397 0 25
136 0 26
95 0 27
331 0 28
56 0 29
6 0 30
268 0 31
103 0 32
286 0 33
218 0 34
8 0 35
51 0 36
37 0 37
224 0 38
92 0 39
188 0 40
168 0 41
330 0 42
438 0 43
302 0 44
354 0 45
348 0 46
348 0 47
161 0 48
159 0 49
463 1 2
467 1 3
185 1 4
90 1 5
367 1 6
203 1 7
412 1 8
327 1 9
202 1 10
369 1 11
50 1 12
444 1 13
410 1 14
169 1 15
482 1 16
159 1 17
198 1 18
242 1 19
68 1 20
438 1 21
407 1 22
274 1 23
444 1 24
397 1 25
40 1 26
38 1 27
242 1 28
115 1 29
60 1 30
381 1 31
48 1 32
363 1 33
151 1 34
391 1 35
328 1 36
61 1 37
84 1 38
249 1 39
487 1 40
134 1 41
157 1 42
304 1 43
109 1 44
476 1 45
172 1 46
155 1 47
233 1 48
173 1 49
240 2 3
429 2 4
471 2 5
313 2 6
467 2 7
71 2 8
72 2 9
474 2 10
363 2 11
453 2 12
70 2 13
240 2 14
182 2 15
438 2 16
361 2 17
490 2 18
79 2 19
69 2 20
169 2 21
239 2 22
193 2 23
155 2 24
109 2 25
52 2 26
450 2 27
479 2 28
227 2 29
328 2 30
188 2 31
427 2 32
341 2 33
33 2 34
123 2 35
399 2 36
396 2 37
287 2 38
455 2 39
179 2 40
67 2 41
67 2 42
363 2 43
489 2 44
297 2 45
226 2 46
115 2 47
209 2 48
299 2 49
486 3 4
217 3 5
437 3 6
484 3 7
451 3 8
170 3 9
451 3 10
178 3 11
341 3 12
456 3 13
457 3 14
406 3 15
86 3 16
435 3 17
87 3 18
294 3 19
3 3 20
48 3 21
499 3 22
26 3 23
356 3 24
4 3 25
198 3 26
464 3 27
295 3 28
461 3 29
433 3 30
485 3 31
245 3 32
105 3 33
178 3 34
333 3 35
127 3 36
4 3 37
219 3 38
436 3 39
398 3 40
268 3 41
3 3 42
330 3 43
322 3 44
479 3 45
484 3 46
68 3 47
204 3 48
396 3 49
1 4 5
84 4 6
334 4 7
381 4 8
489 4 9
239 4 10
227 4 11
21 4 12
256 4 13
232 4 14
339 4 15
344 4 16
253 4 17
384 4 18
340 4 19
447 4 20
391 4 21
476 4 22
446 4 23
301 4 24
247 4 25
275 4 26
456 4 27
354 4 28
201 4 29
437 4 30
35 4 31
252 4 32
55 4 33
222 4 34
82 4 35
403 4 36
204 4 37
135 4 38
339 4 39
449 4 40
381 4 41
457 4 42
177 4 43
30 4 44
81 4 45
147 4 46
439 4 47
324 4 48
436 4 49
27 5 6
463 5 7
474 5 8
33 5 9
404 5 10
463 5 11
98 5 12
177 5 13
403 5 14
140 5 15
304 5 16
111 5 17
338 5 18
79 5 19
469 5 20
78 5 21
264 5 22
225 5 23
65 5 24
223 5 25
178 5 26
49 5 27
241 5 28
100 5 29
29 5 30
461 5 31
295 5 32
233 5 33
417 5 34
286 5 35
177 5 36
116 5 37
406 5 38
440 5 39
336 5 40
84 5 41
333 5 42
293 5 43
150 5 44
273 5 45
345 5 46
106 5 47
307 5 48
324 5 49
182 6 7
311 6 8
185 6 9
213 6 10
441 6 11
312 6 12
69 6 13
260 6 14
182 6 15
93 6 16
207 6 17
356 6 18
119 6 19
404 6 20
161 6 21
372 6 22
290 6 23
400 6 24
304 6 25
176 6 26
60 6 27
36 6 28
492 6 29
124 6 30
447 6 31
4 6 32
69 6 33
320 6 34
208 6 35
188 6 36
94 6 37
32 6 38
49 6 39
378 6 40
217 6 41
68 6 42
123 6 43
165 6 44
379 6 45
310 6 46
47 6 47
283 6 48
425 6 49
470 7 8
314 7 9
310 7 10
51 7 11
259 7 12
249 7 13
290 7 14
104 7 15
216 7 16
186 7 17
394 7 18
178 7 19
66 7 20
201 7 21
262 7 22
164 7 23
316 7 24
490 7 25
87 7 26
245 7 27
295 7 28
23 7 29
185 7 30
11 7 31
199 7 32
332 7 33
241 7 34
307 7 35
433 7 36
249 7 37
62 7 38
435 7 39
86 7 40
288 7 41
50 7 42
129 7 43
180 7 44
480 7 45
24 7 46
370 7 47
16 7 48
65 7 49
60 8 9
479 8 10
420 8 11
20 8 12
412 8 13
206 8 14
442 8 15
37 8 16
150 8 17
117 8 18
200 8 19
192 8 20
428 8 21
438 8 22
378 8 23
373 8 24
410 8 25
406 8 26
57 8 27
428 8 28
290 8 29
435 8 30
225 8 31
63 8 32
208 8 33
444 8 34
61 8 35
437 8 36
157 8 37
321 8 38
341 8 39
363 8 40
454 8 41
22 8 42
32 8 43
64 8 44
401 8 45
360 8 46
95 8 47
87 8 48
163 8 49
340 9 10
205 9 11
415 9 12
290 9 13
334 9 14
93 9 15
10 9 16
448 9 17
111 9 18
210 9 19
31 9 20
157 9 21
91 9 22
389 9 23
52 9 24
242 9 25
51 9 26
156 9 27
349 9 28
270 9 29
373 9 30
401 9 31
368 9 32
173 9 33
443 9 34
76 9 35
265 9 36
427 9 37
252 9 38
153 9 39
494 9 40
250 9 41
164 9 42
98 9 43
218 9 44
15 9 45
196 9 46
48 9 47
91 9 48
3 9 49
331 10 11
216 10 12
207 10 13
140 10 14
227 10 15
300 10 16
55 10 17
245 10 18
50 10 19
287 10 20
143 10 21
2 10 22
334 10 23
125 10 24
490 10 25
453 10 26
227 10 27
294 10 28
23 10 29
178 10 30
136 10 31
178 10 32
198 10 33
248 10 34
345 10 35
33 10 36
163 10 37
372 10 38
179 10 39
164 10 40
279 10 41
397 10 42
89 10 43
499 10 44
108 10 45
210 10 46
325 10 47
160 10 48
188 10 49
492 11 12
122 11 13
140 11 14
485 11 15
482 11 16
13 11 17
425 11 18
256 11 19
205 11 20
437 11 21
292 11 22
241 11 23
439 11 24
263 11 25
480 11 26
29 11 27
97 11 28
450 11 29
195 11 30
87 11 31
349 11 32
404 11 33
307 11 34
200 11 35
329 11 36
453 11 37
351 11 38
122 11 39
356 11 40
335 11 41
87 11 42
491 11 43
124 11 44
258 11 45
201 11 46
77 11 47
130 11 48
73 11 49
126 12 13
9 12 14
178 12 15
109 12 16
12 12 17
61 12 18
446 12 19
10 12 20
17 12 21
202 12 22
412 12 23
127 12 24
368 12 25
25 12 26
29 12 27
417 12 28
295 12 29
256 12 30
401 12 31
499 12 32
324 12 33
409 12 34
365 12 35
365 12 36
448 12 37
51 12 38
428 12 39
226 12 40
321 12 41
56 12 42
121 12 43
410 12 44
302 12 45
286 12 46
63 12 47
164 12 48
457 12 49
357 13 14
226 13 15
448 13 16
32 13 17
16 13 18
414 13 19
300 13 20
472 13 21
251 13 22
485 13 23
160 13 24
426 13 25
44 13 26
394 13 27
188 13 28
143 13 29
329 13 30
275 13 31
181 13 32
291 13 33
417 13 34
130 13 35
107 13 36
148 13 37
98 13 38
192 13 39
313 13 40
479 13 41
439 13 42
461 13 43
297 13 44
231 13 45
10 13 46
100 13 47
113 13 48
181 13 49
392 14 15
34 14 16
206 14 17
456 14 18
39 14 19
45 14 20
37 14 21
218 14 22
208 14 23
459 14 24
219 14 25
326 14 26
245 14 27
418 14 28
285 14 29
415 14 30
149 14 31
62 14 32
59 14 33
2 14 34
115 14 35
298 14 36
265 14 37
127 14 38
207 14 39
343 14 40
248 14 41
38 14 42
135 14 43
179 14 44
398 14 45
104 14 46
138 14 47
309 14 48
392 14 49
366 15 16
439 15 17
96 15 18
378 15 19
365 15 20
315 15 21
120 15 22
104 15 23
459 15 24
62 15 25
383 15 26
68 15 27
34 15 28
267 15 29
233 15 30
21 15 31
427 15 32
219 15 33
223 15 34
446 15 35
204 15 36
452 15 37
322 15 38
69 15 39
146 15 40
354 15 41
28 15 42
462 15 43
389 15 44
413 15 45
414 15 46
218 15 47
120 15 48
197 15 49
282 16 17
445 16 18
49 16 19
19 16 20
115 16 21
204 16 22
260 16 23
348 16 24
50 16 25
119 16 26
111 16 27
106 16 28
23 16 29
6 16 30
371 16 31
329 16 32
473 16 33
429 16 34
113 16 35
384 16 36
418 16 37
125 16 38
155 16 39
485 16 40
39 16 41
321 16 42
72 16 43
499 16 44
238 16 45
321 16 46
428 16 47
65 16 48
272 16 49
389 17 18
397 17 19
90 17 20
282 17 21
154 17 22
247 17 23
211 17 24
286 17 25
417 17 26
58 17 27
124 17 28
487 17 29
40 17 30
114 17 31
298 17 32
378 17 33
17 17 34
206 17 35
104 17 36
94 17 37
323 17 38
33 17 39
425 17 40
395 17 41
455 17 42
173 17 43
294 17 44
236 17 45
416 17 46
336 17 47
301 17 48
490 17 49
95 18 19
289 18 20
189 18 21
369 18 22
366 18 23
34 18 24
494 18 25
288 18 26
442 18 27
467 18 28
163 18 29
322 18 30
30 18 31
268 18 32
250 18 33
490 18 34
138 18 35
87 18 36
296 18 37
151 18 38
384 18 39
312 18 40
466 18 41
232 18 42
273 18 43
428 18 44
319 18 45
310 18 46
263 18 47
23 18 48
395 18 49
419 19 20
374 19 21
248 19 22
328 19 23
265 19 24
369 19 25
339 19 26
279 19 27
239 19 28
30 19 29
183 19 30
152 19 31
364 19 32
88 19 33
9 19 34
313 19 35
422 19 36
184 19 37
271 19 38
300 19 39
296 19 40
338 19 41
88 19 42
208 19 43
283 19 44
110 19 45
253 19 46
446 19 47
497 19 48
435 19 49
464 20 21
77 20 22
32 20 23
162 20 24
52 20 25
138 20 26
33 20 27
430 20 28
173 20 29
380 20 30
80 20 31
250 20 32
496 20 33
443 20 34
87 20 35
479 20 36
113 20 37
83 20 38
310 20 39
208 20 40
28 20 41
308 20 42
414 20 43
495 20 44
94 20 45
487 20 46
0 20 47
231 20 48
316 20 49
435 21 22
247 21 23
47 21 24
469 21 25
345 21 26
360 21 27
128 21 28
192 21 29
105 21 30
343 21 31
165 21 32
184 21 33
386 21 34
79 21 35
329 21 36
415 21 37
436 21 38
146 21 39
438 21 40
457 21 41
391 21 42
45 21 43
225 21 44
305 21 45
95 21 46
28 21 47
243 21 48
356 21 49
70 22 23
162 22 24
58 22 25
465 22 26
398 22 27
148 22 28
27 22 29
213 22 30
132 22 31
424 22 32
366 22 33
341 22 34
367 22 35
304 22 36
2 22 37
48 22 38
353 22 39
455 22 40
423 22 41
396 22 42
186 22 43
331 22 44
86 22 45
479 22 46
343 22 47
43 22 48
376 22 49
267 23 24
130 23 25
303 23 26
48 23 27
3 23 28
302 23 29
2 23 30
249 23 31
265 23 32
66 23 33
427 23 34
115 23 35
436 23 36
409 23 37
36 23 38
366 23 39
421 23 40
113 23 41
170 23 42
146 23 43
113 23 44
72 23 45
293 23 46
117 23 47
344 23 48
370 23 49
307 24 25
281 24 26
221 24 27
9 24 28
246 24 29
300 24 30
60 24 31
161 24 32
43 24 33
352 24 34
496 24 35
459 24 36
79 24 37
352 24 38
494 24 39
292 24 40
453 24 41
96 24 42
442 24 43
118 24 44
31 24 45
348 24 46
37 24 47
491 24 48
65 24 49
344 25 26
451 25 27
341 25 28
360 25 29
422 25 30
181 25 31
285 25 32
413 25 33
197 25 34
53 25 35
234 25 36
383 25 37
493 25 38
281 25 39
128 25 40
227 25 41
479 25 42
393 25 43
357 25 44
478 25 45
73 25 46
150 25 47
48 25 48
38 25 49
65 26 27
171 26 28
237 26 29
269 26 30
155 26 31
9 26 32
197 26 33
21 26 34
193 26 35
74 26 36
422 26 37
484 26 38
46 26 39
477 26 40
309 26 41
398 26 42
121 26 43
181 26 44
293 26 45
445 26 46
451 26 47
206 26 48
287 26 49
207 27 28
295 27 29
320 27 30
244 27 31
271 27 32
86 27 33
175 27 34
426 27 35
97 27 36
395 27 37
359 27 38
179 27 39
367 27 40
95 27 41
105 27 42
46 27 43
476 27 44
64 27 45
22 27 46
388 27 47
55 27 48
126 27 49
282 28 29
210 28 30
381 28 31
314 28 32
407 28 33
40 28 34
442 28 35
27 28 36
132 28 37
281 28 38
13 28 39
178 28 40
268 28 41
175 28 42
89 28 43
491 28 44
231 28 45
370 28 46
454 28 47
305 28 48
342 28 49
360 29 30
233 29 31
172 29 32
114 29 33
280 29 34
281 29 35
409 29 36
167 29 37
475 29 38
411 29 39
189 29 40
134 29 41
146 29 42
391 29 43
151 29 44
101 29 45
489 29 46
410 29 47
72 29 48
265 29 49
143 30 31
274 30 32
84 30 33
24 30 34
140 30 35
53 30 36
46 30 37
193 30 38
443 30 39
343 30 40
59 30 41
57 30 42
468 30 43
30 30 44
15 30 45
198 30 46
185 30 47
154 30 48
420 30 49
17 31 32
227 31 33
220 31 34
495 31 35
248 31 36
355 31 37
95 31 38
16 31 39
230 31 40
197 31 41
178 31 42
62 31 43
66 31 44
221 31 45
301 31 46
47 31 47
478 31 48
165 31 49
74 32 33
477 32 34
152 32 35
331 32 36
401 32 37
197 32 38
270 32 39
426 32 40
483 32 41
215 32 42
311 32 43
438 32 44
224 32 45
174 32 46
109 32 47
351 32 48
407 32 49
465 33 34
55 33 35
466 33 36
70 33 37
410 33 38
362 33 39
188 33 40
62 33 41
206 33 42
408 33 43
19 33 44
76 33 45
149 33 46
385 33 47
247 33 48
357 33 49
131 34 35
382 34 36
104 34 37
375 34 38
72 34 39
278 34 40
360 34 41
35 34 42
60 34 43
47 34 44
139 34 45
294 34 46
22 34 47
77 34 48
401 34 49
419 35 36
178 35 37
241 35 38
459 35 39
300 35 40
304 35 41
93 35 42
258 35 43
437 35 44
335 35 45
146 35 46
393 35 47
187 35 48
477 35 49
29 36 37
117 36 38
361 36 39
357 36 40
406 36 41
186 36 42
218 36 43
151 36 44
318 36 45
200 36 46
459 36 47
499 36 48
24 36 49
399 37 38
272 37 39
92 37 40
194 37 41
55 37 42
230 37 43
410 37 44
365 37 45
202 37 46
408 37 47
286 37 48
191 37 49
403 38 39
436 38 40
245 38 41
387 38 42
86 38 43
131 38 44
236 38 45
62 38 46
281 38 47
303 38 48
358 38 49
196 39 40
355 39 41
225 39 42
106 39 43
116 39 44
311 39 45
15 39 46
407 39 47
37 39 48
292 39 49
244 40 41
93 40 42
261 40 43
106 40 44
65 40 45
134 40 46
43 40 47
415 40 48
158 40 49
256 41 42
184 41 43
390 41 44
446 41 45
161 41 46
117 41 47
428 41 48
312 41 49
137 42 43
4 42 44
441 42 45
190 42 46
338 42 47
404 42 48
6 42 49
398 43 44
494 43 45
306 43 46
329 43 47
254 43 48
88 43 49
329 44 45
472 44 46
432 44 47
312 44 48
409 44 49
473 45 46
214 45 47
212 45 48
35 45 49
169 46 47
456 46 48
355 46 49
236 47 48
492 47 49
416 48 49
